0.002597943	43.776367	16.7	-0.5	0.0	99.9997440511	5.00080582551	1.0	0.100000000001	887.2057	659.208745301	0.0
66.212984776	1.43792066416	-7.1835113
51.6820753654	-2.7081395867	-0.45351133
99.589906293	2.45931376568	12.194814
45.2456569683	2.37864977426	-0.4675574
41.6118849601	0.526175678033	-2.2001927
96.5942975875	0.0564985377636	-5.3912358
26.9095155494	-0.568506263583	4.4710026
97.2289381832	-1.40842258192	20.022112
71.4017432169	0.0120922609535	-3.5649629
34.3265313911	2.90207508412	-3.6075139
44.55626836	-1.25477204964	-0.017179759
96.8920222094	-2.22197119944	-3.6443574
53.4176854208	2.12684880377	2.5037501
53.7078843814	-2.74056547452	1.3485274
86.2042827607	1.82319230387	-3.5104957
37.2268075806	0.0437438851709	-3.5396779
74.8995329806	-2.32481937922	1.808412
47.8966968724	1.18295877781	-2.3163452
78.150637402	1.25215269087	-11.287466
20.8506708057	0.348339525859	1.0861096
97.7548610665	1.7924208846	4.7023382
74.0179131805	0.881382491277	0.52219123
53.7072747739	3.11697536592	-0.81530446
71.3473655969	1.92000156248	-14.028419
47.4966554976	2.88356468298	-0.20675603
89.7780675995	0.269184725744	7.8379025
22.3854508745	-0.742909635306	-0.52951717
6.91459828095	-0.266674762416	-0.38947031
36.1192648367	1.05004795404	-0.50032103
61.9272965444	-0.819836773509	0.47483665
32.8369632829	-1.32396785019	1.075087
86.2691776436	2.1295685597	-4.3954849
99.267993674	0.23079502005	-2.6953313
76.8073426801	2.04770206631	-8.1464977
96.8120238691	0.96738417522	-14.757669
92.56660202	2.75316160032	3.2747684
83.7729292762	-1.23150096774	9.0241394
38.4702862735	3.09202021554	-1.7330294
47.2460380003	0.488252640937	0.46880546
96.960812283	-0.638374262535	6.9511175
27.0580875161	-1.1032832105	1.8391644
50.6797076059	2.81034909124	-4.3178186
39.3511989637	0.492945853143	-2.0089173
23.2877509635	-2.03181316412	0.7257964
68.5125114405	-0.861804924466	6.0490828
65.9007286839	-1.7038987441	3.7539682
56.3607331132	-0.632762088908	-5.3947535
58.8849898907	1.88907536565	-6.878408
42.0148114067	2.37441259593	-1.1888186
81.2538584001	-1.76038071197	27.630487
75.0594832824	0.235132362301	3.4552219
73.6736198694	2.37408969466	-9.9346962
17.0011343728	2.98071865979	-0.47710049
94.7248143965	-0.425266400964	-10.80909
88.5900489081	2.91188538403	-8.3521166
11.9320257269	1.89628123968	-0.44196823
76.1501137156	-0.514895469202	5.96981
86.7721641763	-1.45763051624	3.5622821
47.2524673159	-0.59117219397	-7.0547361
63.3991068724	-1.24542616251	3.5221059
64.6280030526	2.57711182204	2.4672654
86.9281357635	-0.388512950918	10.97178
79.2770680216	1.91116446081	-10.896503
99.2312858662	0.814327022847	1.9877012
53.2363167655	-1.44244599545	6.1437006
98.4106924687	-0.854338141403	1.2561744
91.3791690569	0.632440515683	-6.8816428
58.4333167902	3.07762016695	-0.052897979
81.1821578391	1.28676319166	3.9151323
75.0660165989	-0.294209245778	2.8732059
86.6211744485	-0.707036830372	-12.28038
85.8461323308	2.41092550364	15.913345
68.5663146755	-0.892584621521	-5.458055
76.6394896685	1.65491762036	-8.3599873
69.9890354508	-2.3420021679	13.881299
91.4582277293	-1.79568536747	-19.555136
66.6829805435	-2.21521291369	1.8015466
81.2523778011	2.29764607375	-3.9062946
58.9743030723	-2.22443683554	11.761982
13.5629621128	-2.4774085083	0.1113216
61.922004767	1.19013782658	-13.765122
93.9104642114	0.0872419678742	5.0046563
69.7574485591	0.907859768738	4.3174734
72.545643453	2.23663418066	-3.2304828
28.0389771666	-2.76754776815	-2.0908451
56.2013371582	-2.18994358984	1.3703817
92.6883116805	0.475171874307	-10.906117
11.314753074	0.339322029649	-0.93918765
93.4458591623	1.38557785912	-5.8350921
73.2164108112	0.597164063617	2.4588475
61.6789505981	-2.69818276496	3.234257
88.0074718293	-1.69336057577	2.1653919
23.338797967	1.35866383	-0.4818536
83.0300056329	-0.358714957673	-0.6309393
82.577415925	-1.07561724075	-6.9767933
63.2520952874	-1.0927772481	3.9471276
78.3976906763	2.85475059733	2.3803084
90.2973006304	-2.64458229143	-4.1741805
48.2168069748	-2.17724816653	-5.5960875
42.3040996492	2.94543813623	-1.7960091
